{
  "textConfig": {
    "details": "Chilling",
    "state": "Harmony"
  },
  "imageConfig": {
    "smallKey": "hypesquad",
    "largeKey": "harmony",
    "smallText": "HypeSquad",
    "largeText": "Harmony",
    "showButton": true
  },
  "clientID": "480702174242930708"
}
